src/testbenches/tb_clock_divider.vcd
$date
	Fri Mar  1 20:03:54 2019
$end
$version
	Icarus Verilog
$end
$timescale
	1ns
$end
$scope module tb_clock_divider $end
$var wire 1 ! clk_out $end
$var reg 1 " clk $end
$var reg 1 # reset $end
$scope module clock_divider_instance $end
$var wire 1 " clk_in $end
$var wire 1 # reset $end
$var reg 8 $ clk_count [7:0] $end
$var reg 1 ! clk_out $end
$upscope $end
$upscope $end
$scope module tb_matrix_scan $end
$var wire 1 % row_latch $end
$var wire 4 & row_address_active [3:0] $end
$var wire 4 ' row_address [3:0] $end
$var wire 1 ( output_enable $end
$var wire 6 ) column_address [5:0] $end
$var wire 1 * clk_pixel_load $end
$var wire 1 + clk_pixel $end
$var wire 6 , brightness_mask [5:0] $end
$var reg 1 - clk $end
$var reg 1 . reset $end
$scope module matrix_scan_instance $end
$var wire 1 - clk_in $end
$var wire 1 + clk_pixel $end
$var wire 1 * clk_pixel_load $end
$var wire 1 . reset $end
$var wire 1 / state_advance $end
$var wire 1 % row_latch $end
$var wire 1 ( output_enable $end
$var wire 6 0 column_address [5:0] $end
$var wire 1 1 clk_state $end
$var wire 1 2 clk_pixel_load_en $end
$var wire 10 3 brightness_timeout [9:0] $end
$var wire 10 4 brightness_counter [9:0] $end
$var reg 6 5 brightness_mask [5:0] $end
$var reg 6 6 brightness_mask_active [5:0] $end
$var reg 1 7 clk_pixel_en $end
$var reg 4 8 row_address [3:0] $end
$var reg 4 9 row_address_active [3:0] $end
$var reg 2 : row_latch_state [1:0] $end
$var reg 2 ; state [1:0] $end
$scope module timeout_clk_pixel_load_en $end
$var wire 1 - clk_in $end
$var wire 1 . reset $end
$var wire 1 1 start $end
$var wire 7 < value [6:0] $end
$var wire 1 2 running $end
$var reg 7 = counter [6:0] $end
$var reg 1 > start_latch $end
$upscope $end
$scope module timeout_column_address $end
$var wire 1 - clk_in $end
$var wire 1 . reset $end
$var wire 1 1 start $end
$var wire 6 ? value [5:0] $end
$var wire 1 @ running $end
$var reg 6 A counter [5:0] $end
$var reg 1 B start_latch $end
$upscope $end
$scope module timeout_output_enable $end
$var wire 1 - clk_in $end
$var wire 1 . reset $end
$var wire 1 C start $end
$var wire 10 D value [9:0] $end
$var wire 1 ( running $end
$var reg 10 E counter [9:0] $end
$var reg 1 F start_latch $end
$upscope $end
$upscope $end
$upscope $end
$enddefinitions $end
#0
$dumpvars
0F
bx E
bx D
1C
0B
bx A
x@
b111111 ?
0>
bx =
b1000000 <
b0 ;
b0x :
bx 9
bx 8
x7
bx 6
bx 5
bx 4
bx 3
x2
01
bx 0
x/
0.
0-
bx ,
0+
0*
bx )
x(
bx '
bx &
0%
bx $
0#
0"
x!
$end
#2000000
1/
b1 3
b1 D
02
b0 =
0@
b0 )
b0 0
b0 A
0(
b0 4
b0 E
b1 ;
b0 &
b0 9
b0 '
b0 8
b0 6
b0 ,
b0 5
b0 $
0!
1.
1#
#3000000
0.
0#
#5000000
0/
b11 ;
1F
1(
b1 4
b1 E
b1 $
x+
1-
1"
#10000000
b1 '
b1 8
b100000 ,
b100000 5
xC
x%
bx0 :
07
0+
0-
0"
#15000000
1/
xF
0(
b0 4
b0 E
11
b10 ;
b10 $
1-
1"
#20000000
1C
0%
b0 :
0-
0"
#25000000
1*
01
b1 ;
1F
1B
1@
b111111 )
b111111 0
b111111 A
1>
12
b1000000 =
b11 $
1-
1"
#30000000
b1 :
17
0*
0-
0"
#35000000
0>
b111111 =
0B
b111110 )
b111110 0
b111110 A
b11 ;
b100 $
1*
1+
1-
1"
#40000000
b11 :
0*
0+
0-
0"
#45000000
b111101 )
b111101 0
b111101 A
b111110 =
b0 $
1!
1*
1+
1-
1"
#50000000
0*
0+
0-
0"
#55000000
b111101 =
b111100 )
b111100 0
b111100 A
b1 $
1*
1+
1-
1"
#60000000
0*
0+
0-
0"
#65000000
b111011 )
b111011 0
b111011 A
b111100 =
b10 $
1*
1+
1-
1"
#70000000
0*
0+
0-
0"
#75000000
b111011 =
b111010 )
b111010 0
b111010 A
b11 $
1*
1+
1-
1"
#80000000
0*
0+
0-
0"
#85000000
b111001 )
b111001 0
b111001 A
b111010 =
b100 $
1*
1+
1-
1"
#90000000
0*
0+
0-
0"
#95000000
b111001 =
b111000 )
b111000 0
b111000 A
b0 $
0!
1*
1+
1-
1"
#100000000
0*
0+
0-
0"
#105000000
b110111 )
b110111 0
b110111 A
b111000 =
b1 $
1*
1+
1-
1"
#110000000
0*
0+
0-
0"
#115000000
b110111 =
b110110 )
b110110 0
b110110 A
b10 $
1*
1+
1-
1"
#120000000
0*
0+
0-
0"
#125000000
b110101 )
b110101 0
b110101 A
b110110 =
b11 $
1*
1+
1-
1"
#130000000
0*
0+
0-
0"
#135000000
b110101 =
b110100 )
b110100 0
b110100 A
b100 $
1*
1+
1-
1"
#140000000
0*
0+
0-
0"
#145000000
b110011 )
b110011 0
b110011 A
b110100 =
b0 $
1!
1*
1+
1-
1"
#150000000
0*
0+
0-
0"
#155000000
b110011 =
b110010 )
b110010 0
b110010 A
b1 $
1*
1+
1-
1"
#160000000
0*
0+
0-
0"
#165000000
b110001 )
b110001 0
b110001 A
b110010 =
b10 $
1*
1+
1-
1"
#170000000
0*
0+
0-
0"
#175000000
b110001 =
b110000 )
b110000 0
b110000 A
b11 $
1*
1+
1-
1"
#180000000
0*
0+
0-
0"
#185000000
b101111 )
b101111 0
b101111 A
b110000 =
b100 $
1*
1+
1-
1"
#190000000
0*
0+
0-
0"
#195000000
b101111 =
b101110 )
b101110 0
b101110 A
b0 $
0!
1*
1+
1-
1"
#200000000
0*
0+
0-
0"
#205000000
b101101 )
b101101 0
b101101 A
b101110 =
b1 $
1*
1+
1-
1"
#210000000
0*
0+
0-
0"
#215000000
b101101 =
b101100 )
b101100 0
b101100 A
b10 $
1*
1+
1-
1"
#220000000
0*
0+
0-
0"
#225000000
b101011 )
b101011 0
b101011 A
b101100 =
b11 $
1*
1+
1-
1"
#230000000
0*
0+
0-
0"
#235000000
b101011 =
b101010 )
b101010 0
b101010 A
b100 $
1*
1+
1-
1"
#240000000
0*
0+
0-
0"
#245000000
b101001 )
b101001 0
b101001 A
b101010 =
b0 $
1!
1*
1+
1-
1"
#250000000
0*
0+
0-
0"
#255000000
b101001 =
b101000 )
b101000 0
b101000 A
b1 $
1*
1+
1-
1"
#260000000
0*
0+
0-
0"
#265000000
b100111 )
b100111 0
b100111 A
b101000 =
b10 $
1*
1+
1-
1"
#270000000
0*
0+
0-
0"
#275000000
b100111 =
b100110 )
b100110 0
b100110 A
b11 $
1*
1+
1-
1"
#280000000
0*
0+
0-
0"
#285000000
b100101 )
b100101 0
b100101 A
b100110 =
b100 $
1*
1+
1-
1"
#290000000
0*
0+
0-
0"
#295000000
b100101 =
b100100 )
b100100 0
b100100 A
b0 $
0!
1*
1+
1-
1"
#300000000
0*
0+
0-
0"
#305000000
b100011 )
b100011 0
b100011 A
b100100 =
b1 $
1*
1+
1-
1"
#310000000
0*
0+
0-
0"
#315000000
b100011 =
b100010 )
b100010 0
b100010 A
b10 $
1*
1+
1-
1"
#320000000
0*
0+
0-
0"
#325000000
b100001 )
b100001 0
b100001 A
b100010 =
b11 $
1*
1+
1-
1"
#330000000
0*
0+
0-
0"
#335000000
b100001 =
b100000 )
b100000 0
b100000 A
b100 $
1*
1+
1-
1"
#340000000
0*
0+
0-
0"
#345000000
b11111 )
b11111 0
b11111 A
b100000 =
b0 $
1!
1*
1+
1-
1"
#350000000
0*
0+
0-
0"
#355000000
b11111 =
b11110 )
b11110 0
b11110 A
b1 $
1*
1+
1-
1"
#360000000
0*
0+
0-
0"
#365000000
b11101 )
b11101 0
b11101 A
b11110 =
b10 $
1*
1+
1-
1"
#370000000
0*
0+
0-
0"
#375000000
b11101 =
b11100 )
b11100 0
b11100 A
b11 $
1*
1+
1-
1"
#380000000
0*
0+
0-
0"
#385000000
b11011 )
b11011 0
b11011 A
b11100 =
b100 $
1*
1+
1-
1"
#390000000
0*
0+
0-
0"
#395000000
b11011 =
b11010 )
b11010 0
b11010 A
b0 $
0!
1*
1+
1-
1"
#400000000
b1 ;
0F
0@
b0 )
b0 0
b0 A
02
b0 =
b0 '
b0 8
b0 ,
b0 5
0*
0+
0-
0"
1.
1#
#405000000
1+
1-
1"
#410000000
0C
1%
b10 :
07
0+
0-
0"
#415000000
1-
1"
#420000000
1C
0%
b0 :
0-
0"
